[
    {
        "template" : "local_config",
        "io_sizes" : [1, 4, 16],
        "nreqs" : [100]
    },
    {
        "template" : "local_config",
        "io_sizes" : [1],
        "nreqs" : [1000]
    },
    {
        "template" : "cluster_config",
        "io_sizes" : [1, 4, 16, 64, 128],
        "nreqs" : [8000]
    },
    {
        "template" : "cluster_config",
        "io_sizes" : [1],
        "nreqs" : [1000]
    }
]
